[2024-08-17T05:36:59.679Z] info: docker.yaml was copied to the config folder
[2024-08-17T05:36:59.680Z] info: services.yaml was copied to the config folder
[2024-08-17T05:36:59.681Z] info: bookmarks.yaml was copied to the config folder
[2024-08-17T05:36:59.685Z] info: widgets.yaml was copied to the config folder
[2024-08-17T05:36:59.686Z] info: custom.css was copied to the config folder
[2024-08-17T05:36:59.686Z] info: custom.js was copied to the config folder
[2024-08-17T05:36:59.711Z] info: kubernetes.yaml was copied to the config folder
